{
  "data": {
    "type": "deploy_bundles",
    "id": "1",
    "attributes": {
      "ox_deploy_bundle_uuid": "db5da999-0b91-42f6-a9e5-6701c465f7b2",
      "instance_id": 181,
      "label": "ERP Bundle Sample",
      "active": true,
      "owner_username": null,
      "path": "/var/www/deployment/bundles_develop/db5da999-0b91-42f6-a9e5-6701c465f7b2",
      "integrity": true,
      "last_sync_date": "2021-08-03 14:51:52",
      "branch": "2021_06",
      "modules": {
        "1": "admin",
        "20": "dPpatients",
        "60": "system"
      }
    },
    "links": {
      "self": "/mediboard/api/oxDeploy/bundles/db5da999-0b91-42f6-a9e5-6701c465f7b2",
      "schema": "/mediboard/api/schemas/deploy_bundles",
      "history": "/mediboard/api/history/deploy_bundles/1"
    }
  },
  "meta": {
    "date": "2021-08-09 16:11:48+02:00",
    "copyright": "OpenXtrem-2021",
    "authors": "dev@openxtrem.com"
  }
}